Download and Create a Tidy Data Frame of CRU CL v. 2.0 Climatology Variables — get_CRU_df • rOpenSci: getCRUCLdata
…
#> # A tibble: 6 x 5
#>     lat   lon month   pre   tmp
#>   <dbl> <dbl> <fct> <dbl> <dbl>
#> 1 -59.1 -26.6 jan   105.    0.2
#> 2 -58.4 -26.4 jan   107.    0.4
#> 3 -58.4 -26.2 jan   106.    0.6
#> 4 -55.9 -67.2 jan    73.1   8  
#> 5 -55.8 -67.6 jan    71.7   8.4
#> 6 -55.8 -67.4 jan    70.2   8  

library(tibble)
CRU_pre_tmp

#> # A tibble: 6,795,144 x 5
#>      lat   lon month   pre   tmp
#>    <dbl> <dbl> <fct> <dbl> <dbl>
#>  1 -59.1 -26.6 jan   105.    0.2
#>  2 -58.4 -26.4 jan   107.    0.4
#>  3 -58.4 -26.2 jan   106.    0.6
#>  4 -55.9 -67.2 jan    73.1   8  
#>  5 -55.8 -67.6 jan    71.7   8.4
#>  6 -55.8 -67.4 jan    70.2   8  
#>  7 -55.8 -67.2 jan    68.7   8.2
#>  8 -55.6 -68.2 jan    73.8   8.4
#>  9 -55.6 -68.1 jan    71.6   8.2
#> 10 -55.6 -67.6 jan    66.5   8.6
#> # … with 6,795,134 more rows
…
