getCRUCLdata • rOpenSci: getCRUCLdata
…
CRU_data <- get_CRU_df(pre = TRUE,
                       pre_cv = TRUE,
                       rd0 = TRUE,
                       tmp = TRUE,
                       dtr = TRUE,
                       reh = TRUE,
                       tmn = TRUE,
                       tmx = TRUE,
                       sunp = TRUE,
                       frs = TRUE,
                       wnd = TRUE,
                       elv = TRUE)

CRU_data
#> # A tibble: 6,795,150 x 15
#>      lat   lon month   dtr   frs   pre pre_cv   rd0   reh   sun   tmp   wnd   elv   tmx   tmn
#>    <dbl> <dbl> <fct> <dbl> <dbl> <dbl>  <dbl> <dbl> <dbl> <dbl> <dbl> <dbl> <dbl> <dbl> <dbl>
#>  1  30.9  35.4 <NA>   NA    NA    NA     NA    NA    NA    NA    NA    NA    -260 NA    NA   
#>  2  31.1  35.4 <NA>   NA    NA    NA     NA    NA    NA    NA    NA    NA    -361 NA    NA   
#>  3  31.2  35.4 <NA>   NA    NA    NA     NA    NA    NA    NA    NA    NA    -336 NA    NA   
#>  4  31.4  35.4 <NA>   NA    NA    NA     NA    NA    NA    NA    NA    NA    -284 NA    NA   
#>  5  31.8  35.6 <NA>   NA    NA    NA     NA    NA    NA    NA    NA    NA    -248 NA    NA   
#>  6  31.9  35.6 <NA>   NA    NA    NA     NA    NA    NA    NA    NA    NA    -210 NA    NA   
#>  7 -59.1 -26.6 jan     2.3  18.7 105.    35.2  17.1  88.6   9.4   0.2   6.4   193  1.35 -0.95
#>  8 -58.4 -26.4 jan     2.5  18.5 107.    36.2  17.2  88.5   9.9   0.4   6.4   239  1.65 -0.85
#>  9 -58.4 -26.2 jan     2.4  18.4 106.    36.2  17.1  88.5  10     0.6   6.4   194  1.8  -0.6 
#> 10 -55.9 -67.2 jan     7.6   8    73.1   44.1  13.3  80.7  34.3   8     5      64 11.8   4.2 
#> # … with 6,795,140 more rows

Perhaps you only need one or two elements, it is easy to create a tidy data frame of mean temperature only.

t <- get_CRU_df(tmp = TRUE)

t
#> # A tibble: 6,795,144 x 4
#>      lat   lon month   tmp
#>    <dbl> <dbl> <fct> <dbl>
#>  1 -59.1 -26.6 jan     0.2
#>  2 -58.4 -26.2 jan     0.6
#>  3 -58.4 -26.4 jan     0.4
#>  4 -55.9 -67.2 jan     8  
#>  5 -55.8 -67.2 jan     8.2
#>  6 -55.8 -67.4 jan     8  
#>  7 -55.8 -67.6 jan     8.4
#>  8 -55.6 -67.4 jan     8.3
#>  9 -55.6 -67.6 jan     8.6
#> 10 -55.6 -68.1 jan     8.2
#> # … with 6,795,134 more rows
…
